<svg width="22" height="23" viewBox="0 0 22 23" fill="none" xmlns="http://www.w3.org/2000/svg">
<path fill-rule="evenodd" clip-rule="evenodd" d="M5.9097 4.91465C5.75255 4.47116 5.12537 4.47116 4.96822 4.91465L4.60385 5.94298C4.55355 6.08494 4.44187 6.19662 4.29991 6.24692L3.27158 6.61129C2.82809 6.76844 2.82809 7.39562 3.27158 7.55277L4.29991 7.91714C4.44187 7.96744 4.55355 8.07912 4.60385 8.22108L4.96822 9.24941C5.12537 9.6929 5.75255 9.6929 5.9097 9.24941L6.27407 8.22108C6.32437 8.07912 6.43605 7.96744 6.57801 7.91714L7.60634 7.55277C8.04983 7.39562 8.04983 6.76844 7.60634 6.61129L6.57801 6.24692C6.43605 6.19662 6.32437 6.08494 6.27407 5.94298L5.9097 4.91465ZM6.96823 13.9146C7.12538 13.4711 7.75255 13.4711 7.9097 13.9146L8.27408 14.943C8.32438 15.0849 8.43605 15.1966 8.57801 15.2469L9.60634 15.6113C10.0498 15.7684 10.0498 16.3956 9.60634 16.5527L8.57801 16.9171C8.43605 16.9674 8.32438 17.0791 8.27408 17.221L7.9097 18.2494C7.75255 18.6929 7.12538 18.6929 6.96823 18.2494L6.60385 17.221C6.55355 17.0791 6.44187 16.9674 6.29991 16.9171L5.27158 16.5527C4.82809 16.3956 4.82809 15.7684 5.27158 15.6113L6.29991 15.2469C6.44187 15.1966 6.55355 15.0849 6.60385 14.943L6.96823 13.9146Z" fill="#B2B1B2"/>
<path d="M18.8925 9.43501L18.8788 9.39867L17.5031 5.81004C17.4752 5.73958 17.4257 5.6798 17.3616 5.63937C17.3138 5.60877 17.2595 5.58979 17.203 5.58395C17.1465 5.57812 17.0895 5.5856 17.0364 5.60579C16.9834 5.62598 16.9358 5.65831 16.8975 5.70021C16.8592 5.7421 16.8312 5.79239 16.8158 5.84703L15.8872 8.69003H12.1266L11.1979 5.84703C11.1824 5.79247 11.1544 5.74228 11.1161 5.70046C11.0778 5.65865 11.0302 5.62637 10.9772 5.6062C10.9242 5.58603 10.8672 5.57852 10.8107 5.58428C10.7543 5.59004 10.7 5.60891 10.6522 5.63937C10.5881 5.6798 10.5385 5.73958 10.5107 5.81004L9.13558 9.39932L9.12131 9.43501C8.92333 9.95242 8.89894 10.5202 9.05181 11.0526C9.20469 11.5851 9.52653 12.0534 9.96883 12.387L9.97402 12.3909L9.9857 12.4L12.0785 13.9685L13.1169 14.7531L13.7476 15.23C13.8216 15.2859 13.9119 15.3162 14.0046 15.3162C14.0974 15.3162 14.1876 15.2859 14.2616 15.23L14.8924 14.7531L15.9307 13.9685L18.0384 12.3909L18.0443 12.3864C18.4866 12.0529 18.8084 11.5847 18.9614 11.0524C19.1144 10.52 19.0902 9.9524 18.8925 9.43501Z" stroke="#B2B1B2" stroke-width="0.8"/>
</svg>
